<svg width="48" height="48" viewBox="0 0 48 48" fill="none" xmlns="http://www.w3.org/2000/svg">
    <path d="M40 12H8C6.93913 12 5.92172 12.4214 5.17157 13.1716C4.42143 13.9217 4 14.9391 4 16V20C4.00421 20.6981 4.19104 21.3829 4.5419 21.9863C4.89276 22.5898 5.39545 23.091 6 23.44V36C6 37.0609 6.42143 38.0783 7.17157 38.8284C7.92172 39.5786 8.93913 40 10 40H38C39.0609 40 40.0783 39.5786 40.8284 38.8284C41.5786 38.0783 42 37.0609 42 36V23.44C42.6045 23.091 43.1072 22.5898 43.4581 21.9863C43.809 21.3829 43.9958 20.6981 44 20V16C44 14.9391 43.5786 13.9217 42.8284 13.1716C42.0783 12.4214 41.0609 12 40 12Z" fill="url(#paint0_linear_858_28705)" stroke="url(#paint1_linear_858_28705)" stroke-linejoin="round"/>
    <path d="M8 12H40C41.0609 12 42.0783 12.4214 42.8284 13.1716C43.5786 13.9217 44 14.9391 44 16V20C43.9958 20.6981 43.809 21.3829 43.4581 21.9863C43.1072 22.5898 42.6045 23.091 42 23.44H6C5.39545 23.091 4.89276 22.5898 4.5419 21.9863C4.19104 21.3829 4.00421 20.6981 4 20V16C4 14.9391 4.42143 13.9217 5.17157 13.1716C5.92172 12.4214 6.93913 12 8 12Z" fill="url(#paint2_linear_858_28705)" stroke="url(#paint3_linear_858_28705)" stroke-linejoin="round"/>
    <path d="M32 4C30.4372 4.17488 28.9248 4.65933 27.5513 5.42509C26.1777 6.19085 24.9705 7.22256 24 8.46C23.0295 7.22256 21.8223 6.19085 20.4487 5.42509C19.0752 4.65933 17.5628 4.17488 16 4C15.4696 4 14.9609 4.21071 14.5858 4.58579C14.2107 4.96086 14 5.46957 14 6C14 6.53043 14.2107 7.03914 14.5858 7.41421C14.9609 7.78929 15.4696 8 16 8C17.271 8.27267 18.4668 8.82043 19.5034 9.60477C20.5399 10.3891 21.3921 11.391 22 12.54V40H26V12.54C26.6079 11.391 27.4601 10.3891 28.4966 9.60477C29.5332 8.82043 30.729 8.27267 32 8C32.5304 8 33.0391 7.78929 33.4142 7.41421C33.7893 7.03914 34 6.53043 34 6C34 5.46957 33.7893 4.96086 33.4142 4.58579C33.0391 4.21071 32.5304 4 32 4Z" fill="white"/>
    <path d="M32 4C30.4372 4.17488 28.9248 4.65933 27.5513 5.42509C26.1777 6.19085 24.9705 7.22256 24 8.46C23.0295 7.22256 21.8223 6.19085 20.4487 5.42509C19.0752 4.65933 17.5628 4.17488 16 4C15.4696 4 14.9609 4.21071 14.5858 4.58579C14.2107 4.96086 14 5.46957 14 6C14 6.53043 14.2107 7.03914 14.5858 7.41421C14.9609 7.78929 15.4696 8 16 8C17.271 8.27267 18.4668 8.82043 19.5034 9.60477C20.5399 10.3891 21.3921 11.391 22 12.54V40H26V12.54C26.6079 11.391 27.4601 10.3891 28.4966 9.60477C29.5332 8.82043 30.729 8.27267 32 8C32.5304 8 33.0391 7.78929 33.4142 7.41421C33.7893 7.03914 34 6.53043 34 6C34 5.46957 33.7893 4.96086 33.4142 4.58579C33.0391 4.21071 32.5304 4 32 4Z" fill="url(#paint4_linear_858_28705)" fill-opacity="0.2"/>
    <path d="M32 4C30.4372 4.17488 28.9248 4.65933 27.5513 5.42509C26.1777 6.19085 24.9705 7.22256 24 8.46C23.0295 7.22256 21.8223 6.19085 20.4487 5.42509C19.0752 4.65933 17.5628 4.17488 16 4C15.4696 4 14.9609 4.21071 14.5858 4.58579C14.2107 4.96086 14 5.46957 14 6C14 6.53043 14.2107 7.03914 14.5858 7.41421C14.9609 7.78929 15.4696 8 16 8C17.271 8.27267 18.4668 8.82043 19.5034 9.60477C20.5399 10.3891 21.3921 11.391 22 12.54V40H26V12.54C26.6079 11.391 27.4601 10.3891 28.4966 9.60477C29.5332 8.82043 30.729 8.27267 32 8C32.5304 8 33.0391 7.78929 33.4142 7.41421C33.7893 7.03914 34 6.53043 34 6C34 5.46957 33.7893 4.96086 33.4142 4.58579C33.0391 4.21071 32.5304 4 32 4Z" stroke="url(#paint5_linear_858_28705)" stroke-linejoin="round"/>
    <defs>
        <linearGradient id="paint0_linear_858_28705" x1="23.7661" y1="26.0389" x2="23.7661" y2="39.9316" gradientUnits="userSpaceOnUse">
            <stop stop-color="#95B6FF"/>
            <stop offset="1" stop-color="white"/>
        </linearGradient>
        <linearGradient id="paint1_linear_858_28705" x1="4" y1="26.0389" x2="44.039" y2="26.0389" gradientUnits="userSpaceOnUse">
            <stop stop-color="#4040FF"/>
            <stop offset="1" stop-color="#A3A3FF"/>
        </linearGradient>
        <linearGradient id="paint2_linear_858_28705" x1="23.7661" y1="17.7359" x2="23.7661" y2="23.4121" gradientUnits="userSpaceOnUse">
            <stop stop-color="#95B6FF"/>
            <stop offset="1" stop-color="white"/>
        </linearGradient>
        <linearGradient id="paint3_linear_858_28705" x1="4" y1="17.7359" x2="44.039" y2="17.7359" gradientUnits="userSpaceOnUse">
            <stop stop-color="#4040FF"/>
            <stop offset="1" stop-color="#A3A3FF"/>
        </linearGradient>
        <linearGradient id="paint4_linear_858_28705" x1="23.883" y1="22.05" x2="23.883" y2="39.9121" gradientUnits="userSpaceOnUse">
            <stop stop-color="#2563EB"/>
            <stop offset="1" stop-color="#081B46"/>
        </linearGradient>
        <linearGradient id="paint5_linear_858_28705" x1="14" y1="22.05" x2="34.0195" y2="22.05" gradientUnits="userSpaceOnUse">
            <stop stop-color="#4040FF"/>
            <stop offset="1" stop-color="#A3A3FF"/>
        </linearGradient>
    </defs>
</svg>
