<svg width="16" height="14" viewBox="0 0 16 14" fill="none" xmlns="http://www.w3.org/2000/svg">
    <path d="M10.504 1.39717C10.8703 1.39216 11.2337 1.46253 11.5716 1.60392C11.9095 1.7453 12.2147 1.95468 12.4683 2.21904C13.074 2.09894 13.6549 1.8766 14.186 1.56155C13.9823 2.18523 13.5626 2.71568 13.0025 3.05735C13.5358 2.99173 14.0564 2.84772 14.5476 2.62997C14.1856 3.17263 13.7291 3.64586 13.1998 4.02715C13.2594 5.06785 13.1048 6.10972 12.7456 7.08829C12.3864 8.06686 11.8302 8.96131 11.1115 9.71628C10.3927 10.4713 9.52664 11.0707 8.5669 11.4775C7.60715 11.8844 6.57412 12.0899 5.53175 12.0814C4.07482 12.0786 2.64905 11.6594 1.42241 10.8733C1.63866 10.8855 1.85543 10.8855 2.07169 10.8733C3.28436 10.8769 4.46282 10.4715 5.41668 9.72269C4.85342 9.71839 4.30546 9.53883 3.8489 9.20892C3.39233 8.87902 3.04981 8.41514 2.8689 7.8817C3.03684 7.91398 3.20744 7.93049 3.37845 7.93102C3.62573 7.93324 3.87206 7.90003 4.10992 7.83239C3.48995 7.71147 2.93188 7.37731 2.53255 6.8879C2.13322 6.3985 1.91783 5.78473 1.92375 5.15311C2.2979 5.36473 2.71859 5.48049 3.14833 5.49007C2.57899 5.10729 2.17702 4.52183 2.02432 3.85299C1.87162 3.18414 1.97967 2.48224 2.32646 1.89029C3.00244 2.72218 3.84549 3.40294 4.8011 3.88853C5.75671 4.37412 6.8036 4.65374 7.87407 4.7093C7.78693 4.31503 7.78919 3.90626 7.8807 3.51298C7.9722 3.1197 8.15063 2.75191 8.40287 2.43661C8.65511 2.12131 8.97476 1.86651 9.33836 1.6909C9.70195 1.5153 10.1003 1.42336 10.504 1.42183M10.504 0C9.88747 0.0018626 9.27921 0.142449 8.72436 0.41134C8.1695 0.680232 7.68227 1.07054 7.29876 1.55333C6.95001 2.00461 6.70326 2.52615 6.57552 3.082C5.32816 2.73381 4.21787 2.01083 3.39489 1.0109C3.26526 0.849926 3.10134 0.719913 2.91508 0.630338C2.72882 0.540764 2.52492 0.493885 2.31825 0.49312H2.20318C1.97925 0.509382 1.76267 0.580007 1.57219 0.698873C1.38172 0.81774 1.22311 0.981263 1.1101 1.17527C0.82266 1.6671 0.640619 2.21333 0.575536 2.77927C0.510453 3.34521 0.56375 3.91849 0.732043 4.46274C0.606102 4.6687 0.535339 4.90363 0.526576 5.14489C0.521212 6.11453 0.858907 7.05484 1.47994 7.79952C1.46654 7.97148 1.48606 8.14443 1.53747 8.30908C1.67796 8.74081 1.88903 9.14628 2.16209 9.509H2.04703C1.88551 9.5174 1.72365 9.5174 1.56213 9.509H1.39776C1.09585 9.50887 0.80202 9.60655 0.560268 9.78739C0.318515 9.96823 0.141844 10.2225 0.0567054 10.5122C-0.0284328 10.8018 -0.017457 11.1113 0.0879895 11.3942C0.193436 11.6771 0.387679 11.9182 0.641637 12.0814C2.11262 13.0247 3.82544 13.5214 5.57284 13.5115C6.78644 13.5345 7.99161 13.3054 9.11206 12.8385C10.2325 12.3717 11.2438 11.6773 12.082 10.7993C13.6341 9.15951 14.5417 7.01439 14.638 4.75861C15.044 4.39134 15.4054 3.97756 15.7147 3.52581C15.9156 3.26179 16.016 2.93489 15.9979 2.60362C15.9799 2.27234 15.8445 1.9583 15.6161 1.7177C15.6321 1.48438 15.5894 1.25075 15.4918 1.03823C15.3941 0.825717 15.2447 0.64111 15.0572 0.501339C14.8106 0.302474 14.5028 0.195035 14.186 0.197248C13.9342 0.197376 13.6872 0.265527 13.471 0.394496C13.2589 0.518284 13.0361 0.622805 12.8053 0.706806C12.1249 0.249033 11.3241 0.00308361 10.504 0Z" fill="black"/>
</svg>
